[
  {
    "id": "dovolj",
    "message": "Trenutno lokalna sončna elektrarna proizvaja dovolj energije za celotno skupnost. \n\nSkeniraj QR kodo, poglej kakšne prihranke jim to omogoča in podaj mnenje o javnem portalu.",
    "emoji": "😎",
    "over": true,
    "equal": false,
    "under": false,
    "title": "Prihranki",
    "text": "Za primer energetske skupnosti Budanje, ki je prikazana na javnem portalu je ocenjeno, da bo letni prihranek posameznega gospodinjstva približno 100 evrov. Poleg tega bo celotna skupnst v kateri je podružnična osnovna šola in sedem stanovanjkih hiš v enem letu ogljični odtis zmanjšali za 28500 kg ogljikovega dioksida."
  },
  {
    "id": "presezek",
    "message": "V skupnosti je velik presežek proizvodnje. S hranilnikom energije bi člani lahko ta presežek porabili kasneje. \n\nSkeniraj QR kodo, izvedi več o hranilnikih in podaj mnenje o javnem portalu.",
    "emoji": "🔋",
    "over": true,
    "equal": false,
    "under": false,
    "title": "Hranilnik energije",
    "text": "Ker je generiranje električne energije iz obnovljivih virov izrazito odvisno od vremenskih razmer in dela dneva, imajo za doseganje samo-zadostnosti in samo-porabe ključno vlogo tudi hranilniki energije. Namen hranilnikov energije je, da shranjujejo presežke proizvodnje za obdobja, ko je v skupnosti presežek porabe.\n\nPoznamo več tipov hranilnikov energije: baterije ki se namestijo na steno v stanovanju, večje skupnostne baterije, ki so običajno postavljene pri transformatorki postaji, vedno bolj pa se uveljavlja tudi ideja uporabe baterij električnih avtomobilov kot hranilnikov energije za stanovanja."
  },
  {
    "id": "premalo",
    "message": "Trenutno sončna elektrarna ne zagotavlja dovolj energije za potrebe skupnosti. \n\nSkeniraj QR kodo, poglej možno rešitev z uporabo hranilnika energije in podaj menenje o javnem portalu.",
    "emoji": "😬",
    "over": false,
    "equal": false,
    "under": true,
    "title": "Hranilnik energije",
    "text": "Ker je generiranje električne energije iz obnovljivih virov izrazito odvisno od vremenskih razmer in dela dneva, imajo za doseganje samo-zadostnosti in samo-porabe ključno vlogo tudi hranilniki energije. Namen hranilnikov energije je, da shranjujejo presežke proizvodnje za obdobja, ko je v skupnosti presežek porabe.\n\nPoznamo več tipov hranilnikov energije: baterije ki se namestijo na steno v stanovanju, večje skupnostne baterije, ki so običajno postavljene pri transformatorki postaji, vedno bolj pa se uveljavlja tudi ideja uporabe baterij električnih avtomobilov kot hranilnikov energije za stanovanja."
  },
  {
    "id": "idealno",
    "message": "Trenutna poraba in proizvodnja električne energije v skupnosti sta skoraj enaki. \n\nSkeniraj QR kodo, poglej zakaj je to idealno in podaj mnenje o javnem portalu.",
    "emoji": "👌",
    "over": false,
    "equal": true,
    "under": false,
    "title": "Idelano stanje v energetski skupnosti",
    "text": "Presežek porabe v energetski skupnosti zahteva odvez energije iz elektro energetskega omrežja v katerem večina energije ni pridobljena iz obnovljivih virov. Presežek proizvodnje po drugi strani lahko povzroči preobremenitev omrežja. Zato je idelano, da je proizvodnja čim bolj enaka porabi."
  },
  {
    "id": "druzbene-koristi",
    "message": "Energetske skupnosti prinašajo tudi družbene koristi. \n\nSkeniraj QR kodo in poglej kakšne so, ter podaj mnenje o javnem portalu.",
    "emoji": "🏘",
    "over": true,
    "equal": true,
    "under": true,
    "title": "Družbene koristi",
    "text": "Obnovljivi viri energije (OVE) omogočajo državljanom in skupnostim, da postanejo pomemben akter v energetskem sektorju – ne le kot porabniki, temveč tudi kot proizvajalci. Posamezniki in skupnosti lahko na področju energije prevzamemo aktivno vlogo ter pripomoremo k čistejši proizvodnji energije in trajnostni energetski transformaciji."
  },
  {
    "id": "neprimerna-streha",
    "message": "Energetske skupnosti lahko rešijo težavo s postavitvijo sončne elektrarne če živimo v večstanovanjski stavbi. \n\nSkeniraj QR kodo in poglej kako, ter podaj mnenje o javnem portalu.",
    "emoji": "🏙",
    "over": true,
    "equal": true,
    "under": true,
    "title": "Kaj narediti, če nimamo primerne strehe za sončno elektrarno?",
    "text": "Kot kažejo primeri, lahko pri trajnostnem projektu proizvodnje električne energije iz obnovljivih virov sodelujemo tudi, če živimo v večstanovanjski stavbi. Ali če nimamo primerne strehe za postavitev sončnih panelov. V tem primeru lahko skupnostni projekt izvedemo v sodelovanju z občino, ki v ta namen ponudi šolsko streho, streho bližnjega vrtca itd., nadomestilo za uporabo pa nameni npr. v sklad za socialno šibkejše občane ali sklad za lokalni trajnostni razvoj."
  },
  {
    "id": "presezek2",
    "message": "Trenutno je v skupnosti presežek proizvodnje električne energije. \n\nSkeniraj QR kodo, poglej zakaj to ni nujno zaželeno in podaj mnenje o javnem portalu.",
    "emoji": "⚡",
    "over": true,
    "equal": false,
    "under": false,
    "title": "Nezaželen presežek proizvodnje",
    "text": "Presežek proizvodnje ni nujno zaželjen. V primeru velikega števila sončnih elektrarn bi lahko prišlo do preobremenitve omrežja. Ta težava se v skupnosti lahko reši z vključevanjem uporabnikov, ki imajo večjo porabo v časih presežka proizvodnje, zamikom porabe ali postavitvijo hranilnika energije."
  },
  {
    "id": "skupnost",
    "message": "Energetske skupnosti omogočijo sodelovanje za doseg skupnih trajnostnih ciljev. \n\nSkeniraj QR kodo in poglej kako, ter podaj mnenje o javnem portalu.",
    "emoji": "🌱",
    "over": true,
    "equal": true,
    "under": true,
    "title": "Sodelovanje v energetskih skupnostih",
    "text": "Poleg zmanjšanja emisij toplogrednih plinov in drugih okoljskih koristih je pri tovrstnih skupnostnih projektih pomembna dimenzija sodelovanja za doseg skupnih trajnostnih ciljev. Namesto, da poskrbimo le za lastne potrebe, s skupnimi močmi dosežemo trajnostno rabo virov, ob tem pa se gradi skupnost, kar s seboj prinaša pomembne nematerialne koristi."
  },
  {
    "id": "fizicno",
    "message": "Kako energetske skupnosti delujejo na fizičnem nivoju? Kako se lahko odločim iz katerega vira dobivam energijo? \n\nSkeniraj QR kodo poglej odgovor in podaj mnenje o javnem portalu.",
    "emoji": "🤔",
    "over": true,
    "equal": true,
    "under": true,
    "title": "Kako energetske skupnosti delujejo na fizičnem nivoju?",
    "text": "Trenutno so v večini primerov člani skupnosti fizično še vedno priključeni na elektroenergetsko omrežje na popolnoma enak način, ko so bili preden so bili člani energetske skupnosti. Energstska skupnost torej deluje na bolj abstraktnem nivoju, kjer je glavna sprememba predvsem način zaračunavanja porabljene energije. Drug pomemben vidik je skupna želja po lokalni proizvodnji in porabe energeij proizveden iz trajnostnih virov."
  },
  {
    "id": "default",
    "message": "Kaj je energetska skupnost? \n\nSkeniraj QR kodo poglej odgovor in podaj mnenje o javnem portalu.",
    "emoji": "🌇",
    "over": true,
    "equal": true,
    "under": true,
    "title": "Kaj je energetska skupnost?",
    "text": "Energetska skupnost je skupina uporabnikov v kateri so lahko gospodinjstva, podjetja in javne ustanove, ki z uporabo lastnih ali skupnostnih obnovljivih virov energije proizvaja in porablja energijo na načine, da so čim bolj samo-zadostni in hkrati dosegajo čim višjo samo-porabo, kar dosegajo predvsem s prilagajanjem porabe glede na razpoložljivost električne energije in z uporabo hranilnikov energije.."
  }
]
