[
  {
    "id": "Sončno",
    "color": "#cc6d62BB",
    "appliances": [],
    "pvGen": [0,0,0,0,0,0,0,0,0,0,0,0,0,0,0,0,0,0,0,0,0,0,0,0,0,0,0,0,10,40,100,300,750,2100,3500,4100,4500,5000,5400,5800,6100,6400,6600,6750,6900,6940,6980,6990,7000,6990,6980,6930,6700,6400,6100,5700,5300,4900,4600,4400,4100,3500,3000,2500,2100,1700,1200,800,500,400,300,200,100,80,10,0,0,0,0,0,0,0,0,0,0,0,0,0,0,0,0,0,0,0,0,0]
  },
  {
    "id": "Oblačno",
    "color": "#cc6d62BB",
    "appliances": [],
    "pvGen": [0,0,0,0,0,0,0,0,0,0,0,0,0,0,0,0,0,0,0,0,0,0,0,0,0,0,0,0,5,10,50,100,200,250,400,700,900,1500,2100,1800,2000,1800,1900,2100,2400,2200,5700,4100,3900,4300,4900,5600,4500,4600,6100,4000,3700,3500,4000,3700,4200,3000,2000,1800,1200,600,1000,500,300,120,250,90,30,20,0,0,0,0,0,0,0,0,0,0,0,0,0,0,0,0,0,0,0,0,0,0]
  },
  {
    "id": "Deževno",
    "color": "#cc6d62BB",
    "appliances": [],
    "pvGen": [0,0,0,0,0,0,0,0,0,0,0,0,0,0,0,0,0,0,0,0,0,0,0,0,0,0,0,0,0,0,0,0,5,30,60,50,90,110,120,130,170,190,200,180,160,180,220,240,230,190,180,280,300,290,260,190,150,170,200,230,210,190,170,190,180,200,150,140,190,170,140,120,100,90,10,0,0,0,0,0,0,0,0,0,0,0,0,0,0,0,0,0,0,0,0,0]
  },
  {
    "id": "Brez sončne elektrarne",
    "color": "#cc6d62BB",
    "appliances": [],
    "pvGen": [0,0,0,0,0,0,0,0,0,0,0,0,0,0,0,0,0,0,0,0,0,0,0,0,0,0,0,0,0,0,0,0,0,0,0,0,0,0,0,0,0,0,0,0,0,0,0,0,0,0,0,0,0,0,0,0,0,0,0,0,0,0,0,0,0,0,0,0,0,0,0,0,0,0,0,0,0,0,0,0,0,0,0,0,0,0,0,0,0,0,0,0,0,0,0,0]
  }
]
